Introduction to R workshop notes
…
Exercise 2: Data Extraction

Read in the babyNames.csv file if you have not already done so, assigning the result to baby.names. The file is located at http://tutorials.iq.harvard.edu/R/Rintro/dataSets/babyNames.csv

Extract data for the name ashley.

Restrict the previous extraction to include only years between 2000 and 2004.

Exercise 2 solution

## 1. Extract data for the name "ashley".
filter(baby.names, Name == "ashley")

## # A tibble: 39 x 4
##     Year Sex    Name   Count
##    <int> <chr>  <chr>  <int>
##  1  1996 Female ashley 23676
##  2  1996 M      ashley    64
##  3  1997 Female ashley 20895
##  4  1997 M      ashley    63
##  5  1998 Female ashley 19871
##  6  1998 M      ashley    27
##  7  1999 Female ashley 18132
##  8  1999 M      ashley    28
##  9  2000 Female ashley 17997
## 10  2000 M      ashley    44
## # ... with 29 more rows
…
Adding, removing, and modifying data.frame columns

You can modify data.frames using mutate function. It works like this:

baby.names <- mutate(baby.names, Thousands = Count/1000)
baby.names

## # A tibble: 197,106 x 5
##     Year Sex    Name     Count Thousands
##    <int> <chr>  <chr>    <int>     <dbl>
##  1  1996 Female aaliyah    802     0.802
##  2  1996 Female aarin        5     0.005
##  3  1996 Female aaron       26     0.026
##  4  1996 Female abagail     87     0.087
##  5  1996 Female abbey      510     0.51 
##  6  1996 Female abbi         5     0.005
##  7  1996 Female abbie      311     0.311
##  8  1996 Female abbigail   235     0.235
##  9  1996 Female abbigale    17     0.017
## 10  1996 Female abby      1402     1.40 
## # ... with 197,096 more rows
…
## # A tibble: 6 x 8
## # Groups:   Year, Sex [1]
##    Year Sex   Name    Count Thousands Decade Popular max_count
##   <int> <chr> <chr>   <int>     <dbl> <chr>  <lgl>       <dbl>
## 1  2015 Male  william    19     0.019 2010's FALSE       19485
## 2  2015 Male  wyatt      29     0.029 2010's FALSE       19485
## 3  2015 Male  xavier     11     0.011 2010's FALSE       19485
## 4  2015 Male  zander      6     0.006 2010's FALSE       19485
## 5  2015 Male  zane        6     0.006 2010's FALSE       19485
## 6  2015 Male  zayden      6     0.006 2010's FALSE       19485

filter(baby.names,
       Count == max_count)

## # A tibble: 40 x 8
## # Groups:   Year, Sex [40]
##     Year Sex    Name    Count Thousands Decade Popular max_count
##    <int> <chr>  <chr>   <int>     <dbl> <chr>  <lgl>       <dbl>
##  1  1996 Female emily   25150      25.2 1990's FALSE       25150
##  2  1996 Male   michael 38322      38.3 1990's TRUE        38322
##  3  1997 Female emily   25731      25.7 1990's FALSE       25731
##  4  1997 Male   michael 37505      37.5 1990's TRUE        37505
##  5  1998 Female emily   26179      26.2 1990's FALSE       26179
##  6  1998 Male   michael 36569      36.6 1990's TRUE        36569
##  7  1999 Female emily   26537      26.5 1990's FALSE       26537
##  8  1999 Male   jacob   35306      35.3 1990's TRUE        35306
##  9  2000 Female emily   25953      26.0 2000's FALSE       25953
## 10  2000 Male   jacob   34418      34.4 2000's TRUE        34418
## # ... with 30 more rows
…
## # A tibble: 1 x 1
##     Total
##     <int>
## 1 3294392

## 3.  Calculate the number of boys and girls born each year. Assign the result
##     to the name `births.by.year`.
births.by.year <- summarize(group_by(baby.names, Year, Sex),
                            Count = sum(Count))
births.by.year

## # A tibble: 40 x 3
## # Groups:   Year [?]
##     Year Sex      Count
##    <int> <chr>    <int>
##  1  1996 Female 1497121
##  2  1996 Male   1728057
##  3  1997 Female 1478802
##  4  1997 Male   1714552
##  5  1998 Female 1496488
##  6  1998 Male   1733194
##  7  1999 Female 1497247
##  8  1999 Male   1736147
##  9  2000 Female 1527247
## 10  2000 Male   1769871
## # ... with 30 more rows
…
