R Data Wrangling
…
tidy

There are many ways to do this kind of data manipulation in R. Were going to use the dplyr and tidyr packages to make our lives easier. (Both packages were installed as dependencies of the tidyverse package.)

Selecting columns

Next we want to retain just the Name, Name__1 and Count, Count__1 columns. We can do that using the select function:

boysNames[[1]]

## # A tibble: 59 x 7
##    X__1  Name    Count X__2   X__3 Name__1  Count__1
##    <chr> <chr>   <dbl> <lgl> <dbl> <chr>       <dbl>
##  1 <NA>  <NA>       NA NA       NA <NA>           NA
##  2 1     JACK    10779 NA       51 DOMINIC      1519
##  3 2     DANIEL  10338 NA       52 NICHOLAS     1385
##  4 3     THOMAS   9603 NA       53 BRANDON      1337
##  5 4     JAMES    9385 NA       54 RHYS         1259
##  6 5     JOSHUA   7887 NA       55 MARK         1222
##  7 6     MATTHEW  7426 NA       56 MAX          1192
##  8 7     RYAN     6496 NA       57 DYLAN        1186
##  9 8     JOSEPH   6193 NA       58 HENRY        1135
## 10 9     SAMUEL   6161 NA       59 PETER        1128
## # ... with 49 more rows

boysNames[[1]] <- select(boysNames[[1]], Name, Name__1, Count, Count__1)
boysNames[[1]]

## # A tibble: 59 x 4
##    Name    Name__1  Count Count__1
##    <chr>   <chr>    <dbl>    <dbl>
##  1 <NA>    <NA>        NA       NA
##  2 JACK    DOMINIC  10779     1519
##  3 DANIEL  NICHOLAS 10338     1385
##  4 THOMAS  BRANDON   9603     1337
##  5 JAMES   RHYS      9385     1259
##  6 JOSHUA  MARK      7887     1222
##  7 MATTHEW MAX       7426     1192
##  8 RYAN    DYLAN     6496     1186
##  9 JOSEPH  HENRY     6193     1135
## 10 SAMUEL  PETER     6161     1128
## # ... with 49 more rows

Dropping missing values

Next we want to remove blank rows and rows used for notes. An easy way to do that is to use drop_na to remove rows with missing values.

boysNames[[1]]

## # A tibble: 59 x 4
##    Name    Name__1  Count Count__1
##    <chr>   <chr>    <dbl>    <dbl>
##  1 <NA>    <NA>        NA       NA
##  2 JACK    DOMINIC  10779     1519
##  3 DANIEL  NICHOLAS 10338     1385
##  4 THOMAS  BRANDON   9603     1337
##  5 JAMES   RHYS      9385     1259
##  6 JOSHUA  MARK      7887     1222
##  7 MATTHEW MAX       7426     1192
##  8 RYAN    DYLAN     6496     1186
##  9 JOSEPH  HENRY     6193     1135
## 10 SAMUEL  PETER     6161     1128
## # ... with 49 more rows

boysNames[[1]] <- drop_na(boysNames[[1]])
boysNames[[1]]

## # A tibble: 50 x 4
##    Name    Name__1  Count Count__1
##    <chr>   <chr>    <dbl>    <dbl>
##  1 JACK    DOMINIC  10779     1519
##  2 DANIEL  NICHOLAS 10338     1385
##  3 THOMAS  BRANDON   9603     1337
##  4 JAMES   RHYS      9385     1259
##  5 JOSHUA  MARK      7887     1222
##  6 MATTHEW MAX       7426     1192
##  7 RYAN    DYLAN     6496     1186
##  8 JOSEPH  HENRY     6193     1135
##  9 SAMUEL  PETER     6161     1128
## 10 LIAM    STEPHEN   5802     1122
## # ... with 40 more rows
…
  ## 1. Write a function that takes a `data.frame` as an argument and
  ##    returns a modified version including only columns named `Name`,
  ##    `Name__1`, `Count`, or `Count__1`.

  namecount <- function(data) {
      select(data, Name, Name__1, Count, Count__1)
  }
     
  ## 2. Test your function on the first `data.frame` in the list of baby
  ##    names data.

  namecount(boysNames[[1]])

## # A tibble: 50 x 4
##    Name    Name__1  Count Count__1
##    <chr>   <chr>    <dbl>    <dbl>
##  1 JACK    DOMINIC  10779     1519
##  2 DANIEL  NICHOLAS 10338     1385
##  3 THOMAS  BRANDON   9603     1337
##  4 JAMES   RHYS      9385     1259
##  5 JOSHUA  MARK      7887     1222
##  6 MATTHEW MAX       7426     1192
##  7 RYAN    DYLAN     6496     1186
##  8 JOSEPH  HENRY     6193     1135
##  9 SAMUEL  PETER     6161     1128
## 10 LIAM    STEPHEN   5802     1122
## # ... with 40 more rows

  ## 3. Use the `map` function to each `data.frame` in the list of baby
  ##    names data.

  babyNames <- map(boysNames, namecount)

Re-arranging into a single table

Our final task is to re-arrange to data so that it is all in a single table instead of in two side-by-side tables. For many similar tasks the gather function in the tidyr package is useful, but in this case we will be better off using a combination of select and bind_rows.

boysNames[[1]]

## # A tibble: 50 x 4
##    Name    Name__1  Count Count__1
##    <chr>   <chr>    <dbl>    <dbl>
##  1 JACK    DOMINIC  10779     1519
##  2 DANIEL  NICHOLAS 10338     1385
##  3 THOMAS  BRANDON   9603     1337
##  4 JAMES   RHYS      9385     1259
##  5 JOSHUA  MARK      7887     1222
##  6 MATTHEW MAX       7426     1192
##  7 RYAN    DYLAN     6496     1186
##  8 JOSEPH  HENRY     6193     1135
##  9 SAMUEL  PETER     6161     1128
## 10 LIAM    STEPHEN   5802     1122
## # ... with 40 more rows

bind_rows(select(boysNames[[1]], Name, Count),
          select(boysNames[[1]], Name = Name__1, Count = Count__1))

## # A tibble: 100 x 2
##    Name    Count
##    <chr>   <dbl>
##  1 JACK    10779
##  2 DANIEL  10338
##  3 THOMAS   9603
##  4 JAMES    9385
##  5 JOSHUA   7887
##  6 MATTHEW  7426
##  7 RYAN     6496
##  8 JOSEPH   6193
##  9 SAMUEL   6161
## 10 LIAM     5802
## # ... with 90 more rows
…
