Introduction To Programming In R
…
Now that we know how to group by and summarize we can calculate the number of babies born each year

group_by(baby.names, Year) %>%
  summarize(Total = sum(Count))

> group_by(baby.names, Year) %>%
+   summarize(Total = sum(Count))
# A tibble: 106 × 2
    Year   Total
   <int>   <dbl>
1   1910  516321
2   1911  565814
3   1912  887994
4   1913 1028571
5   1914 1293332
6   1915 1690027
7   1916 1786513
8   1917 1855702
9   1918 2013367
10  1919 1954824
# ... with 96 more rows
>

We can also easily generalize this to other groupings, e.g., to calculate the number of boys and girls born each year:

group_by(baby.names, Year, Sex) %>%
  summarize(Total = sum(Count))

> group_by(baby.names, Year, Sex) %>%
+   summarize(Total = sum(Count))
Source: local data frame [212 x 3]
Groups: Year [?]

    Year   Sex  Total
   <int> <chr>  <dbl>
1   1910     F 352092
2   1910     M 164229
3   1911     F 372376
4   1911     M 193438
5   1912     F 504292
6   1912     M 383702
7   1913     F 566967
8   1913     M 461604
9   1914     F 696893
10  1914     M 596439
# ... with 202 more rows
…
